lab4.vcd
$date
	Wed May 29 20:37:13 2019
$end
$version
	Icarus Verilog
$end
$timescale
	1s
$end
$scope module top_sft $end
$var wire 1 ! tb_sim_rst $end
$var wire 1 " tb_rx_data_rdy $end
$var wire 8 # tb_rx_data [7:0] $end
$var wire 5 $ leds [4:0] $end
$var wire 1 % la_tx_data_rdy $end
$var wire 8 & la_tx_data [7:0] $end
$var wire 1 ' clk12m $end
$scope module latticehx1k $end
$var wire 1 ( L4_PrintBuf $end
$var wire 5 ) L4_led [4:0] $end
$var wire 1 * L4_tx_data_rdy $end
$var wire 1 + bu_tx_busy $end
$var wire 1 , from_pc $end
$var wire 5 - led [4:0] $end
$var wire 1 . o_serial_data $end
$var wire 1 / sd $end
$var wire 1 0 to_ir $end
$var wire 1 1 utb_txdata_rdy $end
$var wire 8 2 utb_txdata [7:0] $end
$var wire 1 ! tb_sim_rst $end
$var wire 1 " tb_rx_data_rdy $end
$var wire 8 3 tb_rx_data [7:0] $end
$var wire 1 4 rst $end
$var wire 1 % la_tx_data_rdy $end
$var wire 8 5 la_tx_data [7:0] $end
$var wire 1 ' clk_in $end
$var wire 1 6 clk $end
$var wire 1 7 bu_rx_data_rdy $end
$var wire 8 8 bu_rx_data [7:0] $end
$var wire 8 9 L4_tx_data [7:0] $end
$scope module Lab_UT $end
$var wire 1 ( L4_PrintBuf $end
$var wire 5 : L4_led [4:0] $end
$var wire 1 * L4_tx_data_rdy $end
$var wire 1 ; sccDecrypt $end
$var wire 1 < sccDnibble1En $end
$var wire 1 = sccDnibble2En $end
$var wire 1 > sccEldByte $end
$var wire 1 ? sccElsBitsLd $end
$var wire 1 @ sccEmsBitsLd $end
$var wire 1 A sccEmsBitsSl $end
$var wire 1 B sccEncrypt $end
$var wire 8 C sccLdKey [7:0] $end
$var wire 1 D sccLdLFSR $end
$var wire 1 E scdCharIsValid $end
$var wire 1 4 rst $end
$var wire 1 F de_validAscii $end
$var wire 1 G de_hex $end
$var wire 1 H de_cr $end
$var wire 1 I de_bigS $end
$var wire 1 J de_bigP $end
$var wire 1 K de_bigL $end
$var wire 1 L de_bigE $end
$var wire 1 M de_bigD $end
$var wire 1 6 clk $end
$var wire 1 7 bu_rx_data_rdy $end
$var wire 8 N bu_rx_data [7:0] $end
$var wire 8 O L4_tx_data [7:0] $end
$scope module dk $end
$var wire 1 M de_bigD $end
$var wire 1 L de_bigE $end
$var wire 1 K de_bigL $end
$var wire 1 J de_bigP $end
$var wire 1 I de_bigS $end
$var wire 1 H de_cr $end
$var wire 1 P de_esc $end
$var wire 1 G de_hex $end
$var wire 1 F de_validAscii $end
$var wire 1 Q is_b0_0 $end
$var wire 1 R is_b1_0 $end
$var wire 1 S is_b2_0 $end
$var wire 1 T is_b3_0 $end
$var wire 1 U is_b4_0 $end
$var wire 1 V is_b5_0 $end
$var wire 1 W is_b6_0 $end
$var wire 1 X is_b7_0 $end
$var wire 1 Y is_b7_1 $end
$var wire 1 Z is_b6_1 $end
$var wire 1 [ is_b5_1 $end
$var wire 1 \ is_b4_1 $end
$var wire 1 ] is_b3_1 $end
$var wire 1 ^ is_b2_1 $end
$var wire 1 _ is_b1_1 $end
$var wire 1 ` is_b0_1 $end
$var wire 1 7 charDataValid $end
$var wire 8 a charData [7:0] $end
$upscope $end
$scope module scctrl $end
$upscope $end
$scope module scdp $end
$var wire 8 b d2eData [7:0] $end
$var wire 8 c e2dData [7:0] $end
$var wire 32 d lfsrVal [31:0] $end
$var wire 8 e psrByte [7:0] $end
$var wire 1 ; sccDecrypt $end
$var wire 1 < sccDnibble1En $end
$var wire 1 = sccDnibble2En $end
$var wire 1 > sccEldByte $end
$var wire 1 ? sccElsBitsLd $end
$var wire 1 @ sccEmsBitsLd $end
$var wire 1 A sccEmsBitsSl $end
$var wire 1 B sccEncrypt $end
$var wire 8 f sccLdKey [7:0] $end
$var wire 1 D sccLdLFSR $end
$var wire 1 E scdCharIsValid $end
$var wire 1 4 rst $end
$var wire 8 g pCharDecrypt [7:0] $end
$var wire 8 h msBitsD [7:0] $end
$var wire 8 i msBits [7:0] $end
$var wire 8 j lsBitsD [7:0] $end
$var wire 8 k lsBits [7:0] $end
$var wire 8 l key3 [7:0] $end
$var wire 8 m key2 [7:0] $end
$var wire 8 n key1 [7:0] $end
$var wire 8 o key0 [7:0] $end
$var wire 1 6 clk $end
$var wire 8 p byteToEncrypt [7:0] $end
$var wire 8 q byteToDecrypt [7:0] $end
$var wire 1 7 bu_rx_data_rdy $end
$var wire 8 r bu_rx_data [7:0] $end
$var wire 1 s binVal_ValidD $end
$var wire 4 t binValD [3:0] $end
$var wire 4 u binVal [3:0] $end
$var wire 8 v L4_tx_data [7:0] $end
$scope module a2b $end
$var wire 8 w inVal [7:0] $end
$var reg 4 x val [3:0] $end
$upscope $end
$scope module b2a0 $end
$var wire 4 y hx [3:0] $end
$var wire 1 z lowerTen $end
$var wire 8 { asciiHex [7:0] $end
$upscope $end
$scope module b2a1 $end
$var wire 4 | hx [3:0] $end
$var wire 1 } lowerTen $end
$var wire 8 ~ asciiHex [7:0] $end
$upscope $end
$scope module k0h $end
$var wire 1 !" ce $end
$var wire 1 4 rst $end
$var wire 4 "" d [3:0] $end
$var wire 1 6 clk $end
$var reg 4 #" q [3:0] $end
$upscope $end
$scope module k0l $end
$var wire 1 $" ce $end
$var wire 1 4 rst $end
$var wire 4 %" d [3:0] $end
$var wire 1 6 clk $end
$var reg 4 &" q [3:0] $end
$upscope $end
$scope module k1h $end
$var wire 1 '" ce $end
$var wire 1 4 rst $end
$var wire 4 (" d [3:0] $end
$var wire 1 6 clk $end
$var reg 4 )" q [3:0] $end
$upscope $end
$scope module k1l $end
$var wire 1 *" ce $end
$var wire 1 4 rst $end
$var wire 4 +" d [3:0] $end
$var wire 1 6 clk $end
$var reg 4 ," q [3:0] $end
$upscope $end
$scope module k2h $end
$var wire 1 -" ce $end
$var wire 1 4 rst $end
$var wire 4 ." d [3:0] $end
$var wire 1 6 clk $end
$var reg 4 /" q [3:0] $end
$upscope $end
$scope module k2l $end
$var wire 1 0" ce $end
$var wire 1 4 rst $end
$var wire 4 1" d [3:0] $end
$var wire 1 6 clk $end
$var reg 4 2" q [3:0] $end
$upscope $end
$scope module k3h $end
$var wire 1 3" ce $end
$var wire 1 4 rst $end
$var wire 4 4" d [3:0] $end
$var wire 1 6 clk $end
$var reg 4 5" q [3:0] $end
$upscope $end
$scope module k3l $end
$var wire 1 6" ce $end
$var wire 1 4 rst $end
$var wire 4 7" d [3:0] $end
$var wire 1 6 clk $end
$var reg 4 8" q [3:0] $end
$upscope $end
$scope module lfsrInst $end
$var wire 1 D ldLFSR $end
$var wire 32 9" ldVal [31:0] $end
$var wire 32 :" lfsrVal [31:0] $end
$var wire 8 ;" psrByte [7:0] $end
$var wire 1 <" step $end
$var wire 1 4 rst $end
$var wire 1 6 clk $end
$upscope $end
$scope module lsBitsi $end
$var wire 1 ? ce $end
$var wire 8 =" d [7:0] $end
$var wire 1 4 rst $end
$var wire 1 6 clk $end
$var reg 8 >" q [7:0] $end
$upscope $end
$scope module msBitsi $end
$var wire 1 @ ce $end
$var wire 8 ?" d [7:0] $end
$var wire 1 4 rst $end
$var wire 1 6 clk $end
$var reg 8 @" q [7:0] $end
$upscope $end
$scope module pinst0 $end
$var wire 8 A" inByte [7:0] $end
$var wire 1 B" pValid $end
$var wire 8 C" pChar [7:0] $end
$upscope $end
$scope module pinst1 $end
$var wire 1 E pValid $end
$var wire 8 D" pChar [7:0] $end
$var wire 8 E" inByte [7:0] $end
$upscope $end
$scope module rddataDV $end
$var wire 1 F" ce $end
$var wire 1 4 rst $end
$var wire 1 7 d $end
$var wire 1 6 clk $end
$var reg 1 s q $end
$upscope $end
$scope module rxdataD $end
$var wire 1 G" ce $end
$var wire 4 H" d [3:0] $end
$var wire 1 4 rst $end
$var wire 1 6 clk $end
$var reg 4 I" q [3:0] $end
$upscope $end
$scope module u0 $end
$var wire 1 < ce $end
$var wire 4 J" d [3:0] $end
$var wire 1 4 rst $end
$var wire 1 6 clk $end
$var reg 4 K" q [3:0] $end
$upscope $end
$scope module u1 $end
$var wire 1 = ce $end
$var wire 4 L" d [3:0] $end
$var wire 1 4 rst $end
$var wire 1 6 clk $end
$var reg 4 M" q [3:0] $end
$upscope $end
$scope module u2 $end
$var wire 1 > ce $end
$var wire 1 4 rst $end
$var wire 8 N" d [7:0] $end
$var wire 1 6 clk $end
$var reg 8 O" q [7:0] $end
$upscope $end
$upscope $end
$upscope $end
$scope module buart $end
$var wire 1 + busy $end
$var wire 1 P" rd $end
$var wire 1 , rx $end
$var wire 1 . tx $end
$var wire 1 1 wr $end
$var wire 8 Q" tx_data [7:0] $end
$var wire 1 " to_dev_data_valid $end
$var wire 8 R" to_dev_data [7:0] $end
$var wire 1 ! resetq $end
$var wire 1 6 clk $end
$var reg 8 S" fa_data [7:0] $end
$var reg 1 % fa_valid $end
$var reg 8 T" rx_data [7:0] $end
$var reg 1 U" to_dev_data_validD $end
$var reg 1 7 valid $end
$upscope $end
$scope module resetGen $end
$var wire 8 V" bu_rx_data [7:0] $end
$var wire 1 7 bu_rx_data_rdy $end
$var wire 1 W" escKey $end
$var wire 1 ! tb_sim_rst $end
$var wire 5 X" reset_count_next [4:0] $end
$var wire 1 6 clk $end
$var reg 5 Y" reset_count [4:0] $end
$var reg 1 4 rst $end
$scope module uu0 $end
$var wire 5 Z" r1 [4:0] $end
$var wire 1 [" up $end
$var wire 5 \" result [4:0] $end
$var wire 5 ]" ci [4:0] $end
$scope begin counter_gen_label[1] $end
$upscope $end
$scope begin counter_gen_label[2] $end
$upscope $end
$scope begin counter_gen_label[3] $end
$upscope $end
$scope begin counter_gen_label[4] $end
$upscope $end
$upscope $end
$upscope $end
$scope module ufifo $end
$var wire 1 ( printBuf $end
$var wire 1 4 reset $end
$var wire 1 7 rxDataValid $end
$var wire 1 ^" rxDataValidNoEsc $end
$var wire 8 _" rxdata [7:0] $end
$var wire 1 + txBusy $end
$var wire 1 * txDataValid $end
$var wire 8 `" txdata [7:0] $end
$var wire 1 1 utb_txdata_rdy $end
$var wire 8 a" utb_txdata [7:0] $end
$var wire 1 b" startcrlf $end
$var wire 1 c" printingBuf $end
$var wire 1 d" popFifo $end
$var wire 1 e" fifo_txdata_rdy $end
$var wire 8 f" fifo_txdata [7:0] $end
$var wire 1 g" emptyB $end
$var wire 1 h" emitlf $end
$var wire 1 i" emitcr $end
$var wire 1 j" crlfdone $end
$var wire 1 6 clk $end
$var reg 1 k" txDataValidD $end
$var reg 8 l" txdataD [7:0] $end
$scope module emitcrlf_fsm $end
$var wire 1 4 rst $end
$var wire 1 + txBusy $end
$var wire 1 b" startcrlf $end
$var wire 1 6 clk $end
$var reg 1 j" crlfdone $end
$var reg 2 m" cstate [1:0] $end
$var reg 1 i" emitcr $end
$var reg 1 h" emitlf $end
$var reg 2 n" nstate [1:0] $end
$upscope $end
$scope module fifo $end
$var wire 1 4 reset $end
$var wire 8 o" wdata [7:0] $end
$var wire 1 k" write $end
$var wire 1 d" read $end
$var wire 1 g" emptyB $end
$var wire 1 6 clk $end
$var reg 9 p" rdaddr [8:0] $end
$var reg 8 q" rdata [7:0] $end
$var reg 9 r" wraddr [8:0] $end
$upscope $end
$scope module tx_fsm $end
$var wire 1 j" crlfdone $end
$var wire 1 g" emptyB $end
$var wire 1 ( printBuf $end
$var wire 1 4 rst $end
$var wire 1 + txBusy $end
$var wire 1 c" printingBuf $end
$var wire 1 6 clk $end
$var reg 3 s" cstate [2:0] $end
$var reg 3 t" nxtState [2:0] $end
$var reg 1 d" popFifo $end
$var reg 1 b" startcrlf $end
$var reg 1 e" tx_data_rdy $end
$upscope $end
$upscope $end
$scope module uut $end
$var wire 1 u" BYPASS $end
$var wire 1 v" PLLOUTGLOBAL $end
$var wire 1 w" RESETB $end
$var wire 1 ' REFERENCECLK $end
$var reg 1 6 PLLOUTCORE $end
$upscope $end
$upscope $end
$scope module tb_sft $end
$var wire 8 x" la_tx_data [7:0] $end
$var wire 1 % la_tx_data_rdy $end
$var wire 5 y" leds [4:0] $end
$var reg 1 ' clk12m $end
$var reg 8 z" tb_rx_data [7:0] $end
$var reg 1 " tb_rx_data_rdy $end
$var reg 1 ! tb_sim_rst $end
$scope function ascii2bin $end
$var reg 5 {" ascii2bin [4:0] $end
$var reg 8 |" bin8 [7:0] $end
$var reg 8 }" t [7:0] $end
$upscope $end
$scope task displayLattice $end
$var reg 5 ~" leds [4:0] $end
$upscope $end
$scope task jsonTest $end
$var reg 2048 !# oStr [2047:0] $end
$var integer 32 "# firstOne [31:0] $end
$var integer 32 ## score [31:0] $end
$var integer 32 $# tNum [31:0] $end
$upscope $end
$scope task sendByte $end
$var reg 8 %# byt [7:0] $end
$upscope $end
$scope task waitN $end
$var integer 32 &# N [31:0] $end
$upscope $end
$upscope $end
$upscope $end
$enddefinitions $end
#0
$dumpvars
bx &#
bx %#
bx $#
bx ##
bx "#
bx !#
bx ~"
bx }"
bx |"
bx {"
b0 z"
bz y"
bx x"
1w"
zv"
0u"
b0 t"
b0 s"
bx r"
bx q"
bx p"
bx o"
bx n"
bx m"
bx l"
zk"
0j"
0i"
0h"
xg"
bx f"
0e"
0d"
0c"
zb"
b0 a"
bx `"
b0 _"
0^"
bxz ]"
bx \"
1["
bx Z"
bx Y"
bx X"
0W"
b0 V"
0U"
b0 T"
bx S"
b0 R"
b0 Q"
1P"
bx O"
b0 N"
bx M"
b0 L"
bx K"
b0 J"
bx I"
b0 H"
1G"
1F"
b0 E"
b100011 D"
bx C"
xB"
bx A"
bx @"
b0x1xxxxx ?"
bx >"
b0x1xxxxx ="
x<"
bz ;"
bz :"
bx 9"
bx 8"
bx 7"
x6"
bx 5"
bx 4"
x3"
bx 2"
bx 1"
x0"
bx /"
bx ."
x-"
bx ,"
bx +"
x*"
bx )"
bx ("
x'"
bx &"
bx %"
x$"
bx #"
bx ""
x!"
b0x1xxxxx ~
x}
bx |
b0x1xxxxx {
xz
bx y
b0 x
b0 w
bx v
b0 u
bx t
xs
b0 r
bx q
bx p
bx o
bx n
bx m
bx l
b0x1xxxxx k
bx j
b0x1xxxxx i
bx h
bx g
bz f
bz e
bz d
bx c
bx b
b0 a
0`
0_
0^
0]
0\
0[
0Z
0Y
1X
1W
1V
1U
1T
1S
1R
1Q
0P
bx O
b0 N
0M
0L
0K
0J
0I
0H
0G
0F
0E
zD
bz C
zB
zA
z@
z?
z>
z=
z<
z;
bz :
bx 9
b0 8
07
16
bx 5
x4
b0 3
b0 2
01
z0
z/
z.
bz -
z,
0+
z*
bz )
z(
0'
bx &
x%
bz $
b0 #
0"
0!
$end
#10
06
#20
03"
06"
0-"
00"
0'"
0*"
0!"
0$"
0s
b0 t
b0 ""
b0 %"
b0 ("
b0 +"
b0 ."
b0 1"
b0 4"
b0 7"
b0 I"
0%
b0 &
b0 5
b0 S"
b0 x"
16
#30
06
#40
b1 X"
b1 \"
b0z ]"
b0 Y"
b0 Z"
16
1'
1!
#50
06
#60
0b"
14
16
#70
06
#80
b0 n"
0g"
b0 r"
b0 p"
b0 m"
b0 K"
b0 q
b0 M"
b0 p
b0 O"
b0 h
b0 @"
b0 j
b0 >"
b0 &"
b0 o
b0 #"
b0 ,"
b0 n
b0 )"
b0 2"
b0 m
b0 /"
b0 8"
b0 9"
b0 l
b0 5"
16
0'
#90
06
#100
16
#110
06
#120
16
1'
#130
06
#140
16
#150
06
#160
16
0'
#170
06
#180
16
#190
06
#200
b10 X"
b10 \"
b1z ]"
b1 Y"
b1 Z"
16
1'
0!
#210
06
#220
b11 X"
b11 \"
b0z ]"
b10 Y"
b10 Z"
16
#230
06
#240
b100 X"
b100 \"
b11z ]"
b11 Y"
b11 Z"
16
0'
#250
06
#260
b101 X"
b101 \"
b0z ]"
b100 Y"
b100 Z"
16
#270
06
#280
b110 X"
b110 \"
b1z ]"
b101 Y"
b101 Z"
16
1'
#290
06
#300
b111 X"
b111 \"
b0z ]"
b110 Y"
b110 Z"
16
#310
06
#320
b1000 X"
b1000 \"
b111z ]"
b111 Y"
b111 Z"
16
0'
#330
06
#340
b1001 X"
b1001 \"
b0z ]"
b1000 Y"
b1000 Z"
16
#350
06
#360
b1010 X"
b1010 \"
b1z ]"
b1001 Y"
b1001 Z"
16
1'
#370
06
#380
b1011 X"
b1011 \"
b0z ]"
b1010 Y"
b1010 Z"
16
#390
06
#400
b1100 X"
b1100 \"
b11z ]"
b1011 Y"
b1011 Z"
16
0'
#410
06
#420
b1101 X"
b1101 \"
b0z ]"
b1100 Y"
b1100 Z"
16
#430
06
#440
b1110 X"
b1110 \"
b1z ]"
b1101 Y"
b1101 Z"
16
1'
#450
06
#460
b1111 X"
b1111 \"
b0z ]"
b1110 Y"
b1110 Z"
16
#470
06
#480
b10000 X"
b10000 \"
b1111z ]"
b1111 Y"
b1111 Z"
16
0'
#490
06
#500
b10001 X"
b10001 \"
b0z ]"
b10000 Y"
b10000 Z"
16
#510
06
#520
zb"
04
16
1'
#530
06
#540
16
#550
06
#560
16
0'
#570
06
#580
16
#590
06
#600
16
1'
#610
06
#620
16
#630
06
#640
16
0'
#650
06
#660
16
#670
06
#680
16
1'
#690
06
#700
16
#710
06
#720
16
0'
#730
06
#740
16
#750
06
#760
16
1'
#770
06
#780
16
#790
06
#800
16
0'
#810
06
#820
16
#830
06
#840
b1100100 &#
16
1'
